%YAML 1.1
%TAG !u! tag:unity3d.com,2011:
--- !u!1 &1182740493042678757
GameObject:
  m_ObjectHideFlags: 0
  m_CorrespondingSourceObject: {fileID: 0}
  m_PrefabInstance: {fileID: 0}
  m_PrefabAsset: {fileID: 0}
  serializedVersion: 6
  m_Component:
  - component: {fileID: 6059012546449535731}
  - component: {fileID: 5149261018267065029}
  m_Layer: 31
  m_Name: HumanWorldPalette
  m_TagString: Untagged
  m_Icon: {fileID: 0}
  m_NavMeshLayer: 0
  m_StaticEditorFlags: 0
  m_IsActive: 1
--- !u!4 &6059012546449535731
Transform:
  m_ObjectHideFlags: 0
  m_CorrespondingSourceObject: {fileID: 0}
  m_PrefabInstance: {fileID: 0}
  m_PrefabAsset: {fileID: 0}
  m_GameObject: {fileID: 1182740493042678757}
  m_LocalRotation: {x: 0, y: 0, z: 0, w: 1}
  m_LocalPosition: {x: 0, y: 0, z: 0}
  m_LocalScale: {x: 1, y: 1, z: 1}
  m_Children:
  - {fileID: 2309739066421781639}
  m_Father: {fileID: 0}
  m_RootOrder: 0
  m_LocalEulerAnglesHint: {x: 0, y: 0, z: 0}
--- !u!156049354 &5149261018267065029
Grid:
  m_ObjectHideFlags: 0
  m_CorrespondingSourceObject: {fileID: 0}
  m_PrefabInstance: {fileID: 0}
  m_PrefabAsset: {fileID: 0}
  m_GameObject: {fileID: 1182740493042678757}
  m_Enabled: 1
  m_CellSize: {x: 1, y: 1, z: 0}
  m_CellGap: {x: 0, y: 0, z: 0}
  m_CellLayout: 0
  m_CellSwizzle: 0
--- !u!1 &4756893776547235574
GameObject:
  m_ObjectHideFlags: 0
  m_CorrespondingSourceObject: {fileID: 0}
  m_PrefabInstance: {fileID: 0}
  m_PrefabAsset: {fileID: 0}
  serializedVersion: 6
  m_Component:
  - component: {fileID: 2309739066421781639}
  - component: {fileID: 6645663286479270923}
  - component: {fileID: 3570038165706769889}
  m_Layer: 31
  m_Name: Layer1
  m_TagString: Untagged
  m_Icon: {fileID: 0}
  m_NavMeshLayer: 0
  m_StaticEditorFlags: 0
  m_IsActive: 1
--- !u!4 &2309739066421781639
Transform:
  m_ObjectHideFlags: 0
  m_CorrespondingSourceObject: {fileID: 0}
  m_PrefabInstance: {fileID: 0}
  m_PrefabAsset: {fileID: 0}
  m_GameObject: {fileID: 4756893776547235574}
  m_LocalRotation: {x: -0, y: -0, z: -0, w: 1}
  m_LocalPosition: {x: 0, y: 0, z: 0}
  m_LocalScale: {x: 1, y: 1, z: 1}
  m_Children: []
  m_Father: {fileID: 6059012546449535731}
  m_RootOrder: 0
  m_LocalEulerAnglesHint: {x: 0, y: 0, z: 0}
--- !u!1839735485 &6645663286479270923
Tilemap:
  m_ObjectHideFlags: 0
  m_CorrespondingSourceObject: {fileID: 0}
  m_PrefabInstance: {fileID: 0}
  m_PrefabAsset: {fileID: 0}
  m_GameObject: {fileID: 4756893776547235574}
  m_Enabled: 1
  m_Tiles:
  - first: {x: -3, y: -4, z: 0}
    second:
      serializedVersion: 2
      m_TileIndex: 23
      m_TileSpriteIndex: 21
      m_TileMatrixIndex: 0
      m_TileColorIndex: 0
      m_TileObjectToInstantiateIndex: 65535
      dummyAlignment: 0
      m_AllTileFlags: 1073741825
  - first: {x: -2, y: -4, z: 0}
    second:
      serializedVersion: 2
      m_TileIndex: 24
      m_TileSpriteIndex: 22
      m_TileMatrixIndex: 0
      m_TileColorIndex: 0
      m_TileObjectToInstantiateIndex: 65535
      dummyAlignment: 0
      m_AllTileFlags: 1073741825
  - first: {x: -1, y: -4, z: 0}
    second:
      serializedVersion: 2
      m_TileIndex: 25
      m_TileSpriteIndex: 23
      m_TileMatrixIndex: 0
      m_TileColorIndex: 0
      m_TileObjectToInstantiateIndex: 65535
      dummyAlignment: 0
      m_AllTileFlags: 1073741825
  - first: {x: 0, y: -4, z: 0}
    second:
      serializedVersion: 2
      m_TileIndex: 26
      m_TileSpriteIndex: 24
      m_TileMatrixIndex: 0
      m_TileColorIndex: 0
      m_TileObjectToInstantiateIndex: 65535
      dummyAlignment: 0
      m_AllTileFlags: 1073741825
  - first: {x: 1, y: -4, z: 0}
    second:
      serializedVersion: 2
      m_TileIndex: 27
      m_TileSpriteIndex: 25
      m_TileMatrixIndex: 0
      m_TileColorIndex: 0
      m_TileObjectToInstantiateIndex: 65535
      dummyAlignment: 0
      m_AllTileFlags: 1073741825
  - first: {x: -3, y: -3, z: 0}
    second:
      serializedVersion: 2
      m_TileIndex: 18
      m_TileSpriteIndex: 16
      m_TileMatrixIndex: 0
      m_TileColorIndex: 0
      m_TileObjectToInstantiateIndex: 65535
      dummyAlignment: 0
      m_AllTileFlags: 1073741825
  - first: {x: -2, y: -3, z: 0}
    second:
      serializedVersion: 2
      m_TileIndex: 19
      m_TileSpriteIndex: 17
      m_TileMatrixIndex: 0
      m_TileColorIndex: 0
      m_TileObjectToInstantiateIndex: 65535
      dummyAlignment: 0
      m_AllTileFlags: 1073741825
  - first: {x: -1, y: -3, z: 0}
    second:
      serializedVersion: 2
      m_TileIndex: 20
      m_TileSpriteIndex: 18
      m_TileMatrixIndex: 0
      m_TileColorIndex: 0
      m_TileObjectToInstantiateIndex: 65535
      dummyAlignment: 0
      m_AllTileFlags: 1073741825
  - first: {x: 0, y: -3, z: 0}
    second:
      serializedVersion: 2
      m_TileIndex: 21
      m_TileSpriteIndex: 19
      m_TileMatrixIndex: 0
      m_TileColorIndex: 0
      m_TileObjectToInstantiateIndex: 65535
      dummyAlignment: 0
      m_AllTileFlags: 1073741825
  - first: {x: 1, y: -3, z: 0}
    second:
      serializedVersion: 2
      m_TileIndex: 22
      m_TileSpriteIndex: 20
      m_TileMatrixIndex: 0
      m_TileColorIndex: 0
      m_TileObjectToInstantiateIndex: 65535
      dummyAlignment: 0
      m_AllTileFlags: 1073741825
  - first: {x: -1, y: -2, z: 0}
    second:
      serializedVersion: 2
      m_TileIndex: 15
      m_TileSpriteIndex: 15
      m_TileMatrixIndex: 0
      m_TileColorIndex: 0
      m_TileObjectToInstantiateIndex: 65535
      dummyAlignment: 0
      m_AllTileFlags: 1073741825
  - first: {x: 0, y: -2, z: 0}
    second:
      serializedVersion: 2
      m_TileIndex: 16
      m_TileSpriteIndex: 13
      m_TileMatrixIndex: 0
      m_TileColorIndex: 0
      m_TileObjectToInstantiateIndex: 65535
      dummyAlignment: 0
      m_AllTileFlags: 1073741825
  - first: {x: 1, y: -2, z: 0}
    second:
      serializedVersion: 2
      m_TileIndex: 17
      m_TileSpriteIndex: 14
      m_TileMatrixIndex: 0
      m_TileColorIndex: 0
      m_TileObjectToInstantiateIndex: 65535
      dummyAlignment: 0
      m_AllTileFlags: 1073741825
  - first: {x: -3, y: 0, z: 0}
    second:
      serializedVersion: 2
      m_TileIndex: 8
      m_TileSpriteIndex: 8
      m_TileMatrixIndex: 0
      m_TileColorIndex: 0
      m_TileObjectToInstantiateIndex: 65535
      dummyAlignment: 0
      m_AllTileFlags: 1073741825
  - first: {x: -2, y: 0, z: 0}
    second:
      serializedVersion: 2
      m_TileIndex: 9
      m_TileSpriteIndex: 9
      m_TileMatrixIndex: 0
      m_TileColorIndex: 0
      m_TileObjectToInstantiateIndex: 65535
      dummyAlignment: 0
      m_AllTileFlags: 1073741825
  - first: {x: -1, y: 0, z: 0}
    second:
      serializedVersion: 2
      m_TileIndex: 10
      m_TileSpriteIndex: 10
      m_TileMatrixIndex: 0
      m_TileColorIndex: 0
      m_TileObjectToInstantiateIndex: 65535
      dummyAlignment: 0
      m_AllTileFlags: 1073741825
  - first: {x: 0, y: 0, z: 0}
    second:
      serializedVersion: 2
      m_TileIndex: 11
      m_TileSpriteIndex: 11
      m_TileMatrixIndex: 0
      m_TileColorIndex: 0
      m_TileObjectToInstantiateIndex: 65535
      dummyAlignment: 0
      m_AllTileFlags: 1073741825
  - first: {x: 1, y: 0, z: 0}
    second:
      serializedVersion: 2
      m_TileIndex: 12
      m_TileSpriteIndex: 12
      m_TileMatrixIndex: 0
      m_TileColorIndex: 0
      m_TileObjectToInstantiateIndex: 65535
      dummyAlignment: 0
      m_AllTileFlags: 1073741825
  - first: {x: -3, y: 1, z: 0}
    second:
      serializedVersion: 2
      m_TileIndex: 3
      m_TileSpriteIndex: 3
      m_TileMatrixIndex: 0
      m_TileColorIndex: 0
      m_TileObjectToInstantiateIndex: 65535
      dummyAlignment: 0
      m_AllTileFlags: 1073741825
  - first: {x: -2, y: 1, z: 0}
    second:
      serializedVersion: 2
      m_TileIndex: 4
      m_TileSpriteIndex: 4
      m_TileMatrixIndex: 0
      m_TileColorIndex: 0
      m_TileObjectToInstantiateIndex: 65535
      dummyAlignment: 0
      m_AllTileFlags: 1073741825
  - first: {x: -1, y: 1, z: 0}
    second:
      serializedVersion: 2
      m_TileIndex: 5
      m_TileSpriteIndex: 5
      m_TileMatrixIndex: 0
      m_TileColorIndex: 0
      m_TileObjectToInstantiateIndex: 65535
      dummyAlignment: 0
      m_AllTileFlags: 1073741825
  - first: {x: 0, y: 1, z: 0}
    second:
      serializedVersion: 2
      m_TileIndex: 6
      m_TileSpriteIndex: 27
      m_TileMatrixIndex: 0
      m_TileColorIndex: 0
      m_TileObjectToInstantiateIndex: 65535
      dummyAlignment: 0
      m_AllTileFlags: 1073741825
  - first: {x: 1, y: 1, z: 0}
    second:
      serializedVersion: 2
      m_TileIndex: 7
      m_TileSpriteIndex: 7
      m_TileMatrixIndex: 0
      m_TileColorIndex: 0
      m_TileObjectToInstantiateIndex: 65535
      dummyAlignment: 0
      m_AllTileFlags: 1073741825
  - first: {x: -3, y: 2, z: 0}
    second:
      serializedVersion: 2
      m_TileIndex: 0
      m_TileSpriteIndex: 0
      m_TileMatrixIndex: 0
      m_TileColorIndex: 0
      m_TileObjectToInstantiateIndex: 65535
      dummyAlignment: 0
      m_AllTileFlags: 1073741825
  - first: {x: -2, y: 2, z: 0}
    second:
      serializedVersion: 2
      m_TileIndex: 1
      m_TileSpriteIndex: 1
      m_TileMatrixIndex: 0
      m_TileColorIndex: 0
      m_TileObjectToInstantiateIndex: 65535
      dummyAlignment: 0
      m_AllTileFlags: 1073741825
  - first: {x: -1, y: 2, z: 0}
    second:
      serializedVersion: 2
      m_TileIndex: 2
      m_TileSpriteIndex: 6
      m_TileMatrixIndex: 0
      m_TileColorIndex: 0
      m_TileObjectToInstantiateIndex: 65535
      dummyAlignment: 0
      m_AllTileFlags: 1073741825
  - first: {x: 0, y: 2, z: 0}
    second:
      serializedVersion: 2
      m_TileIndex: 13
      m_TileSpriteIndex: 26
      m_TileMatrixIndex: 0
      m_TileColorIndex: 1
      m_TileObjectToInstantiateIndex: 65535
      dummyAlignment: 0
      m_AllTileFlags: 1073741827
  - first: {x: 1, y: 2, z: 0}
    second:
      serializedVersion: 2
      m_TileIndex: 13
      m_TileSpriteIndex: 26
      m_TileMatrixIndex: 0
      m_TileColorIndex: 1
      m_TileObjectToInstantiateIndex: 65535
      dummyAlignment: 0
      m_AllTileFlags: 1073741827
  m_AnimatedTiles: {}
  m_TileAssetArray:
  - m_RefCount: 1
    m_Data: {fileID: 11400000, guid: 38422058286dd704796811bd86217a46, type: 2}
  - m_RefCount: 1
    m_Data: {fileID: 11400000, guid: ffaa56a3d13d3c44abd3e76880642d51, type: 2}
  - m_RefCount: 1
    m_Data: {fileID: 11400000, guid: c66a774335be61a47a910277a2e1cd46, type: 2}
  - m_RefCount: 1
    m_Data: {fileID: 11400000, guid: 97ac2a559c612874f990e6892e661925, type: 2}
  - m_RefCount: 1
    m_Data: {fileID: 11400000, guid: 291a08f96e213454ab203acb3214b9ff, type: 2}
  - m_RefCount: 1
    m_Data: {fileID: 11400000, guid: 447422f3cad63aa428626f4d31248653, type: 2}
  - m_RefCount: 1
    m_Data: {fileID: 11400000, guid: 98ca20ec80fc99d4281dfbab411eac48, type: 2}
  - m_RefCount: 1
    m_Data: {fileID: 11400000, guid: c6a9b923529e32648832c473b054de5d, type: 2}
  - m_RefCount: 1
    m_Data: {fileID: 11400000, guid: 20937b4a95115054a94c6e1d7270805e, type: 2}
  - m_RefCount: 1
    m_Data: {fileID: 11400000, guid: 946c545147c122e4ba25e442401cd221, type: 2}
  - m_RefCount: 1
    m_Data: {fileID: 11400000, guid: 3276b29947f62ef4482159f1be4833c4, type: 2}
  - m_RefCount: 1
    m_Data: {fileID: 11400000, guid: e0301a1976609184a8d0568fff9869ad, type: 2}
  - m_RefCount: 1
    m_Data: {fileID: 11400000, guid: 75676ae600408374e866b1cca206d4eb, type: 2}
  - m_RefCount: 2
    m_Data: {fileID: 0}
  - m_RefCount: 0
    m_Data: {fileID: 0}
  - m_RefCount: 1
    m_Data: {fileID: 11400000, guid: 57326763cb6177443a63473ff57fe0be, type: 2}
  - m_RefCount: 1
    m_Data: {fileID: 11400000, guid: c165d0a23ecb9384a9e80ce31d0ca458, type: 2}
  - m_RefCount: 1
    m_Data: {fileID: 11400000, guid: 177ecfa4a091c0b49a5bd007ad99e785, type: 2}
  - m_RefCount: 1
    m_Data: {fileID: 11400000, guid: a9e6c50ed939df94ebc3053d644b7874, type: 2}
  - m_RefCount: 1
    m_Data: {fileID: 11400000, guid: 2e8f98b88540bb34cb42b4e8f8aa1420, type: 2}
  - m_RefCount: 1
    m_Data: {fileID: 11400000, guid: e3f5527db8841a348a03f5cbfea922db, type: 2}
  - m_RefCount: 1
    m_Data: {fileID: 11400000, guid: 9d33b95e29d289f4c9577182bd5bcb0b, type: 2}
  - m_RefCount: 1
    m_Data: {fileID: 11400000, guid: 7585c3070ae9c3f49a28514823b3d43a, type: 2}
  - m_RefCount: 1
    m_Data: {fileID: 11400000, guid: 854d2eff7cfe64a46a99c6914c88ccf0, type: 2}
  - m_RefCount: 1
    m_Data: {fileID: 11400000, guid: 020f627954f8f0a409dfb95df178ea03, type: 2}
  - m_RefCount: 1
    m_Data: {fileID: 11400000, guid: d2d3879dd3201f44fad108ad97450b53, type: 2}
  - m_RefCount: 1
    m_Data: {fileID: 11400000, guid: ce695bdbed64f9d46880855644848764, type: 2}
  - m_RefCount: 1
    m_Data: {fileID: 11400000, guid: 13e30ee92ce263b4da54ddf51dda77d9, type: 2}
  m_TileSpriteArray:
  - m_RefCount: 1
    m_Data: {fileID: 6682738439518977790, guid: 2567745b60b2d2e47a97ec79d542351a,
      type: 3}
  - m_RefCount: 1
    m_Data: {fileID: -562605217060080129, guid: 2567745b60b2d2e47a97ec79d542351a,
      type: 3}
  - m_RefCount: 0
    m_Data: {fileID: 0}
  - m_RefCount: 1
    m_Data: {fileID: -5930158604282628446, guid: 2567745b60b2d2e47a97ec79d542351a,
      type: 3}
  - m_RefCount: 1
    m_Data: {fileID: -4233739483619845583, guid: 2567745b60b2d2e47a97ec79d542351a,
      type: 3}
  - m_RefCount: 1
    m_Data: {fileID: -6551456632857933372, guid: 2567745b60b2d2e47a97ec79d542351a,
      type: 3}
  - m_RefCount: 1
    m_Data: {fileID: -4970410492042351176, guid: 2567745b60b2d2e47a97ec79d542351a,
      type: 3}
  - m_RefCount: 1
    m_Data: {fileID: -232304020389510235, guid: 2567745b60b2d2e47a97ec79d542351a,
      type: 3}
  - m_RefCount: 1
    m_Data: {fileID: -2542073858232844238, guid: 2567745b60b2d2e47a97ec79d542351a,
      type: 3}
  - m_RefCount: 1
    m_Data: {fileID: 4362130248060910229, guid: 2567745b60b2d2e47a97ec79d542351a,
      type: 3}
  - m_RefCount: 1
    m_Data: {fileID: 5331757720867617967, guid: 2567745b60b2d2e47a97ec79d542351a,
      type: 3}
  - m_RefCount: 1
    m_Data: {fileID: 5743168839956448968, guid: 2567745b60b2d2e47a97ec79d542351a,
      type: 3}
  - m_RefCount: 1
    m_Data: {fileID: 1940044384358670937, guid: 2567745b60b2d2e47a97ec79d542351a,
      type: 3}
  - m_RefCount: 1
    m_Data: {fileID: -562605217060080129, guid: b0e58fb7e6fbe3b44816f96cebe7a488,
      type: 3}
  - m_RefCount: 1
    m_Data: {fileID: -4970410492042351176, guid: b0e58fb7e6fbe3b44816f96cebe7a488,
      type: 3}
  - m_RefCount: 1
    m_Data: {fileID: 6682738439518977790, guid: b0e58fb7e6fbe3b44816f96cebe7a488,
      type: 3}
  - m_RefCount: 1
    m_Data: {fileID: -5930158604282628446, guid: b0e58fb7e6fbe3b44816f96cebe7a488,
      type: 3}
  - m_RefCount: 1
    m_Data: {fileID: -4233739483619845583, guid: b0e58fb7e6fbe3b44816f96cebe7a488,
      type: 3}
  - m_RefCount: 1
    m_Data: {fileID: -6551456632857933372, guid: b0e58fb7e6fbe3b44816f96cebe7a488,
      type: 3}
  - m_RefCount: 1
    m_Data: {fileID: 4717279005209572468, guid: b0e58fb7e6fbe3b44816f96cebe7a488,
      type: 3}
  - m_RefCount: 1
    m_Data: {fileID: -232304020389510235, guid: b0e58fb7e6fbe3b44816f96cebe7a488,
      type: 3}
  - m_RefCount: 1
    m_Data: {fileID: -2542073858232844238, guid: b0e58fb7e6fbe3b44816f96cebe7a488,
      type: 3}
  - m_RefCount: 1
    m_Data: {fileID: 4362130248060910229, guid: b0e58fb7e6fbe3b44816f96cebe7a488,
      type: 3}
  - m_RefCount: 1
    m_Data: {fileID: 5331757720867617967, guid: b0e58fb7e6fbe3b44816f96cebe7a488,
      type: 3}
  - m_RefCount: 1
    m_Data: {fileID: 5743168839956448968, guid: b0e58fb7e6fbe3b44816f96cebe7a488,
      type: 3}
  - m_RefCount: 1
    m_Data: {fileID: 1940044384358670937, guid: b0e58fb7e6fbe3b44816f96cebe7a488,
      type: 3}
  - m_RefCount: 2
    m_Data: {fileID: 0}
  - m_RefCount: 1
    m_Data: {fileID: 4717279005209572468, guid: 2567745b60b2d2e47a97ec79d542351a,
      type: 3}
  m_TileMatrixArray:
  - m_RefCount: 28
    m_Data:
      e00: 1
      e01: 0
      e02: 0
      e03: 0
      e10: 0
      e11: 1
      e12: 0
      e13: 0
      e20: 0
      e21: 0
      e22: 1
      e23: 0
      e30: 0
      e31: 0
      e32: 0
      e33: 1
  m_TileColorArray:
  - m_RefCount: 26
    m_Data: {r: 1, g: 1, b: 1, a: 1}
  - m_RefCount: 2
    m_Data: {r: 0.73504704, g: 0.42776325, b: 0.48614514, a: 1}
  - m_RefCount: 0
    m_Data: {r: 0, g: 0, b: 0, a: 0}
  m_TileObjectToInstantiateArray: []
  m_AnimationFrameRate: 1
  m_Color: {r: 1, g: 1, b: 1, a: 1}
  m_Origin: {x: -3, y: -4, z: 0}
  m_Size: {x: 5, y: 7, z: 1}
  m_TileAnchor: {x: 0.5, y: 0.5, z: 0}
  m_TileOrientation: 0
  m_TileOrientationMatrix:
    e00: 1
    e01: 0
    e02: 0
    e03: 0
    e10: 0
    e11: 1
    e12: 0
    e13: 0
    e20: 0
    e21: 0
    e22: 1
    e23: 0
    e30: 0
    e31: 0
    e32: 0
    e33: 1
--- !u!483693784 &3570038165706769889
TilemapRenderer:
  m_ObjectHideFlags: 0
  m_CorrespondingSourceObject: {fileID: 0}
  m_PrefabInstance: {fileID: 0}
  m_PrefabAsset: {fileID: 0}
  m_GameObject: {fileID: 4756893776547235574}
  m_Enabled: 0
  m_CastShadows: 0
  m_ReceiveShadows: 0
  m_DynamicOccludee: 0
  m_MotionVectors: 1
  m_LightProbeUsage: 0
  m_ReflectionProbeUsage: 0
  m_RayTracingMode: 0
  m_RenderingLayerMask: 1
  m_RendererPriority: 0
  m_Materials:
  - {fileID: 2100000, guid: a97c105638bdf8b4a8650670310a4cd3, type: 2}
  m_StaticBatchInfo:
    firstSubMesh: 0
    subMeshCount: 0
  m_StaticBatchRoot: {fileID: 0}
  m_ProbeAnchor: {fileID: 0}
  m_LightProbeVolumeOverride: {fileID: 0}
  m_ScaleInLightmap: 1
  m_ReceiveGI: 1
  m_PreserveUVs: 0
  m_IgnoreNormalsForChartDetection: 0
  m_ImportantGI: 0
  m_StitchLightmapSeams: 1
  m_SelectedEditorRenderState: 0
  m_MinimumChartSize: 4
  m_AutoUVMaxDistance: 0.5
  m_AutoUVMaxAngle: 89
  m_LightmapParameters: {fileID: 0}
  m_SortingLayerID: 0
  m_SortingLayer: 0
  m_SortingOrder: 0
  m_ChunkSize: {x: 32, y: 32, z: 32}
  m_ChunkCullingBounds: {x: 0, y: 0, z: 0}
  m_MaxChunkCount: 16
  m_MaxFrameAge: 16
  m_SortOrder: 0
  m_Mode: 0
  m_DetectChunkCullingBounds: 0
  m_MaskInteraction: 0
--- !u!114 &1270117787531009876
MonoBehaviour:
  m_ObjectHideFlags: 0
  m_CorrespondingSourceObject: {fileID: 0}
  m_PrefabInstance: {fileID: 0}
  m_PrefabAsset: {fileID: 0}
  m_GameObject: {fileID: 0}
  m_Enabled: 1
  m_EditorHideFlags: 0
  m_Script: {fileID: 12395, guid: 0000000000000000e000000000000000, type: 0}
  m_Name: Palette Settings
  m_EditorClassIdentifier: 
  cellSizing: 0
